<svg width="45" height="44" viewBox="0 0 45 44" fill="none" xmlns="http://www.w3.org/2000/svg">
<g clip-path="url(#clip0)">
<circle cx="22.9566" cy="22.0435" r="22.0435" fill="#0F5FF5"/>
<path d="M31.3273 23.8086C31.4281 23.2539 31.529 22.6488 31.529 22.0437C31.529 17.3036 27.6966 13.4712 22.9565 13.4712C18.2164 13.4712 14.384 17.3036 14.384 22.0437C14.384 26.7837 18.2164 30.6161 22.9565 30.6161C24.671 30.6161 26.3855 30.1119 27.7974 29.1033L26.688 27.7922C25.5787 28.4982 24.318 28.9016 23.0069 28.9016C19.1745 28.9016 16.0985 25.8256 16.0985 22.0437C16.0985 18.2617 19.1745 15.1857 22.9565 15.1857C26.7385 15.1857 29.8145 18.2617 29.8145 22.0437C29.8145 22.5479 29.764 23.0522 29.6632 23.506C29.4615 24.4137 28.8059 24.6658 28.3521 24.6658C27.8983 24.6154 27.3436 24.2624 27.2932 23.4556V22.0437C27.2932 19.6736 25.377 17.707 22.9565 17.707C20.536 17.707 18.6198 19.6736 18.6198 22.0437C18.6198 24.4137 20.536 26.3803 22.9565 26.3803C24.1667 26.3803 25.2761 25.876 26.0325 25.0692C26.4863 25.8256 27.2427 26.2795 28.2008 26.3803C28.3017 26.3803 28.3521 26.3803 28.453 26.3803C29.0581 26.3803 29.6632 26.1786 30.1674 25.7752C30.6717 25.3718 31.0751 24.8171 31.2768 24.1616C31.2768 24.1111 31.3273 24.0607 31.3273 24.0103C31.3273 23.9599 31.3273 23.9094 31.3273 23.8086ZM22.9565 24.6658C21.4941 24.6658 20.3343 23.506 20.3343 22.0437C20.3343 20.5813 21.4941 19.4215 22.9565 19.4215C24.4189 19.4215 25.5787 20.5813 25.5787 22.0437C25.5787 23.506 24.4189 24.6658 22.9565 24.6658Z" fill="url(#paint0_linear)"/>
</g>
<defs>
<linearGradient id="paint0_linear" x1="27.9798" y1="28.4286" x2="18.1348" y2="15.915" gradientUnits="userSpaceOnUse">
<stop stop-color="#FF7E00"/>
<stop offset="1" stop-color="#FFAC00"/>
</linearGradient>
<clipPath id="clip0">
<rect width="44" height="44" fill="white" transform="translate(0.913086)"/>
</clipPath>
</defs>
</svg>
