<svg width="10" height="10" viewBox="0 0 10 10" fill="none" xmlns="http://www.w3.org/2000/svg">
<path d="M0.5 0.5H2L3.77208 5.81623C3.90819 6.22457 4.29033 6.5 4.72076 6.5H7.43381C7.78507 6.5 8.11058 6.3157 8.2913 6.0145L9.5 4" stroke="#EB5757" stroke-linecap="round" stroke-linejoin="round"/>
<rect x="3" y="8" width="2" height="2" rx="1" fill="#EB5757"/>
<rect x="7" y="8" width="2" height="2" rx="1" fill="#EB5757"/>
<rect x="6" y="0.476562" width="1" height="4.04696" rx="0.5" fill="#EB5757"/>
<rect x="4.50244" y="2" width="3.99517" height="1" rx="0.5" fill="#EB5757"/>
</svg>
